<?xml version="1.0" encoding="UTF-8" standalone="no"?>
<svg
   xmlns:dc="http://purl.org/dc/elements/1.1/"
   xmlns:cc="http://creativecommons.org/ns#"
   xmlns:rdf="http://www.w3.org/1999/02/22-rdf-syntax-ns#"
   xmlns:svg="http://www.w3.org/2000/svg"
   xmlns="http://www.w3.org/2000/svg"
   xmlns:sodipodi="http://sodipodi.sourceforge.net/DTD/sodipodi-0.dtd"
   xmlns:inkscape="http://www.inkscape.org/namespaces/inkscape"
   version="1.0"
   width="647.24902"
   height="156.72382"
   viewBox="0 0 6472.4902 1567.2382"
   preserveAspectRatio="xMidYMid meet"
   id="svg344"
   sodipodi:docname="jan-huber-on0xqvZY1N4-unsplash_5.svg"
   inkscape:version="1.0.1 (3bc2e813f5, 2020-09-07)">
  <title
     id="title575">Photo von unterirdischem Bahnhof. (c) Jan Huber via Unsplash license: https://unsplash.com/photos/on0xqvZY1N4</title>
  <metadata
     id="metadata350">
    <rdf:RDF>
      <cc:Work
         rdf:about="">
        <dc:format>image/svg+xml</dc:format>
        <dc:type
           rdf:resource="http://purl.org/dc/dcmitype/StillImage" />
        <dc:title>Photo von unterirdischem Bahnhof. (c) Jan Huber via Unsplash license: https://unsplash.com/photos/on0xqvZY1N4</dc:title>
      </cc:Work>
    </rdf:RDF>
  </metadata>
  <defs
     id="defs348">
    <clipPath
       clipPathUnits="userSpaceOnUse"
       id="clipPath938">
      <rect
         style="fill:#00689d;stroke-width:10"
         id="rect940"
         width="5068.0815"
         height="1567.2382"
         x="-498.66666"
         y="844.68024" />
    </clipPath>
    <clipPath
       clipPathUnits="userSpaceOnUse"
       id="clipPath1947">
      <rect
         style="fill:#00689d;fill-opacity:1;stroke-width:1;stroke-miterlimit:4;stroke-dasharray:none"
         id="rect1949"
         width="1679.1835"
         height="1302.6393"
         x="2208.3811"
         y="946.44897" />
    </clipPath>
  </defs>
  <sodipodi:namedview
     pagecolor="#ffffff"
     bordercolor="#666666"
     borderopacity="1"
     objecttolerance="10"
     gridtolerance="10"
     guidetolerance="10"
     inkscape:pageopacity="0"
     inkscape:pageshadow="2"
     inkscape:window-width="1680"
     inkscape:window-height="997"
     id="namedview346"
     showgrid="false"
     inkscape:snap-global="false"
     inkscape:zoom="0.49131016"
     inkscape:cx="592.14425"
     inkscape:cy="590.53119"
     inkscape:window-x="-8"
     inkscape:window-y="-8"
     inkscape:window-maximized="1"
     inkscape:current-layer="svg344"
     inkscape:document-rotation="0"
     fit-margin-top="0"
     fit-margin-left="0"
     fit-margin-right="0"
     fit-margin-bottom="0" />
  <g
     id="layer101"
     fill="#121212"
     stroke="none"
     transform="matrix(1.4164812,0,0,1,0,-844.68024)"
     clip-path="url(#clipPath938)"
     style="fill:#00689d;fill-opacity:1">
    <path
       d="M 0,3740 V 0 h 6000 6000 V 3740 7480 H 6000 0 Z"
       id="path2"
       style="fill:#00689d;fill-opacity:1;stroke-width:1;stroke-miterlimit:4;stroke-dasharray:none" />
  </g>
  <g
     id="layer102"
     fill="#c0c0c0"
     stroke="none"
     transform="translate(2483.1565,-844.68024)"
     clip-path="url(#clipPath1947)">
    <path
       d="m 3120,2214 c 20,-7 81,-152 66,-158 -6,-2 -2,-5 9,-5 11,-1 45,-7 75,-15 60,-16 74,-13 46,7 -10,8 -29,38 -41,68 -13,31 -33,59 -46,66 -34,18 -6,16 38,-2 19,-8 41,-15 47,-15 31,2 -113,52 -158,55 -28,3 -44,2 -36,-1 z"
       id="path295" />
    <path
       d="m 3316,2113 c 9,-21 20,-48 25,-60 5,-13 11,-23 13,-23 3,0 -5,27 -16,60 -12,33 -26,60 -30,60 -5,0 -1,-17 8,-37 z"
       id="path297" />
    <path
       d="m 3596,1482 c -15,-84 -83,-200 -168,-286 -43,-43 -76,-81 -74,-83 9,-9 146,139 179,194 39,64 80,176 74,202 -2,9 -7,-4 -11,-27 z"
       id="path319" />
    <path
       d="m 2470,1277 c 0,-4 12,-31 26,-59 32,-64 113,-144 181,-181 70,-37 192,-67 272,-66 79,1 48,16 -36,18 -177,3 -339,97 -412,237 -16,32 -30,55 -31,51 z"
       id="path331" />
    <path
       d="m 3607,1623 c -3,-5 -1,-26 3,-48 l 8,-40 1,48 c 1,45 -2,56 -12,40 z"
       id="path313" />
    <path
       d="m 2965,2011 c -212,-58 -380,-191 -465,-365 -44,-91 -63,-192 -39,-207 10,-6 11,-9 2,-9 -9,0 -13,-17 -13,-51 0,-32 4,-48 10,-44 7,4 9,-3 5,-22 -3,-15 -2,-22 1,-15 3,7 16,-9 31,-39 31,-61 104,-137 166,-171 77,-44 138,-59 247,-65 88,-5 118,-2 184,16 197,54 364,186 446,353 40,81 43,93 46,185 3,54 6,108 9,120 6,28 -4,55 -18,46 -6,-4 -8,0 -4,10 3,10 2,17 -4,17 -6,0 -7,5 -4,10 3,6 1,10 -5,10 -6,0 -8,5 -5,10 3,6 1,10 -5,10 -6,0 -9,4 -6,9 8,13 -97,115 -147,143 -81,45 -137,60 -252,64 -87,3 -124,0 -180,-15 z m 85,-66 c 0,-42 -3,-55 -15,-55 -12,0 -15,13 -15,55 0,42 3,55 15,55 12,0 15,-13 15,-55 z m 257,11 c -16,-40 -60,-97 -68,-89 -13,13 38,103 58,103 9,0 13,-6 10,-14 z m -494,-87 c 30,-44 34,-59 14,-59 -20,0 -80,87 -65,93 21,9 22,8 51,-34 z m 676,-62 c -34,-24 -91,-57 -99,-57 -22,0 -8,19 37,48 30,20 51,28 57,22 5,-5 8,-11 5,-13 z m -433,-241 c 10,-17 13,-17 54,4 34,18 44,19 51,8 15,-22 10,-28 -36,-48 l -45,-19 21,-35 20,-35 -29,-15 c -29,-15 -29,-15 -48,24 l -20,38 -231,-98 c -176,-74 -233,-94 -237,-83 -4,9 13,22 52,39 303,132 385,171 389,181 3,7 -23,65 -57,129 -33,64 -60,117 -58,119 36,28 41,25 102,-84 34,-59 66,-115 72,-125 z m -435,130 c 19,-7 43,-16 53,-20 14,-5 16,-10 9,-17 -16,-16 -123,19 -116,38 6,16 12,16 54,-1 z m 929,-91 c 0,-15 -10,-18 -82,-30 -29,-4 -38,-3 -38,8 0,10 19,18 58,25 31,5 58,10 60,11 1,0 2,-6 2,-14 z m -920,-139 c 0,-9 -17,-16 -47,-20 -27,-4 -56,-9 -65,-12 -12,-4 -18,0 -18,10 0,18 14,22 118,35 6,0 12,-5 12,-13 z m 813,-72 c 45,-15 57,-27 39,-38 -13,-8 -102,28 -102,41 0,17 7,16 63,-3 z m -753,-106 c 0,-20 -100,-82 -112,-70 -7,7 8,22 43,46 58,39 69,43 69,24 z m 598,-72 c 27,-37 29,-45 16,-50 -9,-3 -17,-6 -18,-6 -11,0 -57,81 -51,89 11,19 21,12 53,-33 z m -444,-35 c 10,-16 -44,-101 -64,-101 -17,0 -16,6 13,55 32,55 41,63 51,46 z m 216,-66 c 0,-42 -3,-55 -15,-55 -12,0 -15,13 -15,55 0,42 3,55 15,55 12,0 15,-13 15,-55 z"
       id="path299" />
  </g>
</svg>
